[
  {
    "Cells": [
      {
        "State": 1,
        "Strength": 0.1,
        "X": 150,
        "Y": 500
      },
      {
        "X": 300,
        "Y": 330
      },
      {
        "X": 300,
        "Y": 660
      },
      {
        "X": 550,
        "Y": 400
      },
      {
        "X": 550,
        "Y": 600
      },
      {
        "X": 650,
        "Y": 200
      },
      {
        "X": 650,
        "Y": 800
      },
      {
        "X": 700,
        "Y": 450
      },
      {
        "X": 700,
        "Y": 550
      },
      {
        "X": 750,
        "Y": 500
      },
      {
        "X": 800,
        "Y": 450
      },
      {
        "X": 800,
        "Y": 550
      },
      {
        "X": 850,
        "Y": 200
      },
      {
        "X": 850,
        "Y": 800
      },
      {
        "X": 950,
        "Y": 400
      },
      {
        "X": 950,
        "Y": 600
      },
      {
        "X": 1200,
        "Y": 330
      },
      {
        "X": 1200,
        "Y": 660
      },
      {
        "State": 2,
        "Strength": 0.1,
        "X": 1350,
        "Y": 500
      }
    ],
    "MaxScore": 346
  }
]
